Text analysis of the Participatory Public Accounts of the management of Gendarmería de Chile between the years 2017 and 2020
…
We turn the speech into a dataframe, separate its words and calculate its frequencies.

frequencies_2021 <- tibble(speech = speech_2021) %>% 
  unnest_tokens(output = palabra, input = speech, strip_numeric = TRUE) %>%
  count(palabra, sort = TRUE)
frequencies_2021

## # A tibble: 921 × 2
##    palabra     n
##    <chr>   <int>
##  1 de        255
##  2 la        151
##  3 y          97
##  4 en         96
##  5 el         79
##  6 a          78
##  7 que        72
##  8 se         44
##  9 las        41
## 10 del        40
## # … with 911 more rows
…
We turn the speech into a dataframe, separate its words and calculate its frequencies.

frequencies_2020 <- tibble(speech = speech_2020) %>% 
  unnest_tokens(output = palabra, input = speech, strip_numeric = TRUE) %>%
  count(palabra, sort = TRUE)
frequencies_2020

## # A tibble: 2,242 × 2
##    palabra     n
##    <chr>   <int>
##  1 de       1032
##  2 la        429
##  3 el        315
##  4 y         306
##  5 en        288
##  6 a         285
##  7 que       209
##  8 se        191
##  9 los       183
## 10 las       179
## # … with 2,232 more rows
…
We turn the speech into a dataframe, separate its words and calculate its frequencies.

frequencies_2019 <- tibble(speech = speech_2019) %>% 
  unnest_tokens(output = palabra, input = speech, strip_numeric = TRUE) %>%
  count(palabra, sort = TRUE)
frequencies_2019

## # A tibble: 2,966 × 2
##    palabra     n
##    <chr>   <int>
##  1 de       1619
##  2 y         613
##  3 la        606
##  4 en        474
##  5 el        417
##  6 a         382
##  7 se        290
##  8 que       267
##  9 los       251
## 10 del       211
## # … with 2,956 more rows
…
We turn the speech into a dataframe, separate its words and calculate its frequencies.

frequencies_2018 <- tibble(speech = speech_2018) %>% 
  unnest_tokens(output = palabra, input = speech, strip_numeric = TRUE) %>%
  count(palabra, sort = TRUE)
frequencies_2018

## # A tibble: 1,597 × 2
##    palabra     n
##    <chr>   <int>
##  1 de        672
##  2 la        242
##  3 y         211
##  4 en        209
##  5 el        183
##  6 a         178
##  7 se        140
##  8 los       113
##  9 del        99
## 10 que        95
## # … with 1,587 more rows
…
